[
  {
    "name": "Танці з кістками",
    "price": "295",
    "url": "https://static.yakaboo.ua/media/cloudflare/product/webp/352x340/t/a/tantsi-mockup-proz-tlo_bez_tini_3.png",
    "sku": "123456",
    "author": "Андрій Сем’янків",
    "color": "green"
  },

  {
    "name": "1984",
    "price": "180",
    "url": "https://static.yakaboo.ua/media/cloudflare/product/webp/352x340/i/m/img335_8.jpg",
    "sku": "124456",
    "author": "Джордж Орвелл",
    "color": "red"
  },

  {
    "name": "Вибір. Прийняти можливе",
    "price": "390",
    "url": "https://static.yakaboo.ua/media/cloudflare/product/webp/352x340/_/_/__new1.jpg",
    "sku": "153456",
    "author": "Едіт Єва Еґер",
    "color": "blue"
  },

  {
    "name": "Історія України від Діда Свирида. Книга 1",
    "price": "355",
    "url": "https://static.yakaboo.ua/media/cloudflare/product/webp/352x340/i/m/img713_35.jpg",
    "sku": "223456",
    "author": "Дід Свирид",
    "color": "green"
  },

  {
    "name": "За лаштунками імперії",
    "price": "295",
    "url": "https://static.yakaboo.ua/media/cloudflare/product/webp/352x340/l/a/lashtunky-mockup-proz-tlo_bez_tini_1_1.png",
    "sku": "123466",
    "author": "Віра Агеєва",
    "color": "orange"
  },

  {
    "name": "Вибір. Прийняти можливе",
    "price": "240",
    "url": "https://static.yakaboo.ua/media/cloudflare/product/webp/352x340/c/o/cover_458_85.jpg",
    "sku": "127456",
    "author": "Едіт Єва Еґер",
    "color": "green"
  },

  {
    "name": "Мистецтво говорити. Таємниці ефективного спілкування",
    "price": "256",
    "url": "https://static.yakaboo.ua/media/cloudflare/product/webp/352x340/f/b/fb722083y_talkability_cover.jpg",
    "sku": "129456",
    "author": "Джеймс Борг",
    "color": "red"
  },

  {
    "name": "Кінчай! Твоє право на задоволення",
    "price": "250",
    "url": "https://static.yakaboo.ua/media/cloudflare/product/webp/352x340/c/o/cover_458_83.jpg",
    "sku": "128456",
    "author": "Лорі Мінц",
    "color": "yellow"
  },

  {
    "name": "Зникнення аптекарки",
    "price": "450",
    "url": "https://static.yakaboo.ua/media/cloudflare/product/webp/352x340/b/o/book_lost_apothecary-web-700x740.jpg",
    "sku": "123422",
    "author": "Сара Пеннер",
    "color": "blue"
  },

  {
    "name": "Несподівана радість тверезості",
    "price": "120",
    "url": "https://static.yakaboo.ua/media/cloudflare/product/webp/352x340/c/o/cover_441_34.jpg",
    "sku": "723456",
    "author": "Кетрін Ґрей",
    "color": "red"
  },

  {
    "name": "Пес на ім'я Мані, або Абетка грошей",
    "price": "220",
    "url": "https://static.yakaboo.ua/media/cloudflare/product/webp/352x340/i/m/img_0051_3.jpg",
    "sku": "023456",
    "author": "Бодо Шефер",
    "color": "red"
  },

  {
    "name": "Для стосунків потрібні двоє",
    "price": "140",
    "url": "https://static.yakaboo.ua/media/cloudflare/product/webp/352x340/s/t/stosynky-mockup-proz-tlo_bez_tini_2.png",
    "sku": "103456",
    "author": "Володимир Станчишин",
    "color": "green"
  }
]